Get All MealSessions
---
tags:
  - Meal Sessions
summary: Get all mesl sessions
consumes:
  - application/json
parameters:
  - name: X-Location
    type: integer
    required: true
    description: The center's location Id
    in: header
    example: '1'
  - name: Authorization
    type: string
    required: true
    description: User's token prefix with the word "Bearer"
    in: header
  - name: date
    in: query
    type: string
    format: date
    description: the meal session date
  - name: startTime
    in: query
    type: string
    format: time
    description: the meal session start time
  - name: stopTime
    in: query
    type: string
    format: time
    description: the meal session stop time
  - name: name
    in: query
    type: string
    description: meal session name. lunch or breakfast
definitions:
  SessionListPayload:
    type: object
    properties:
      msg:
        type: string
        default: Ok
      payload:
        type: object
        properties:
          mealSessions:
            type: array
            items:
              type: object
              properties:
                locationId:
                  type: integer
                name:
                  type: string
                id:
                  type: integer
                isDeleted:
                  type: boolean
                date:
                  type: string
                  format: time
                startTime:
                  type: string
                  format: time
                stopTime:
                  type: string
                  format: time
                timestamps:
                  type: object
                  properties:
                    created_at:
                      type: string
                      format: date
                      example: 2018-10-22
                    updated_at:
                      type: string
                      format: date
                      example: 2018-10-22
          meta:
            type: object
            properties:
              current_page:
                type: integer
              next_page:
                type: integer
              prev_page:
                type: integer
              total_pages:
                type: integer
              total_rows:
                type: integer

responses:
  200:
    description: Ok
    schema:
      $ref: '#/definitions/SessionListPayload'
    examples:
      response: |
        {
          "msg": "OK",
          "payload": {
              "MealSessions": [
                  {
                      "id": 2,
                      "isDeleted": false,
                      "name": "breakfast",
                      "date": "Wed, 30 Oct 2019 00:00:00 GMT",
                      "locationId": 1,
                      "startTime": "08:00:00",
                      "stopTime": "09:00:00",
                      "timestamps": {
                          "created_at": "2019-04-09",
                          "updated_at": "Tue, 09 Apr 2019 06:51:27 GMT"
                      }
                  }

              ],
              "meta": {
                  "total_rows": 29,
                  "total_pages": 2,
                  "current_page": 1,
                  "next_page": 2,
                  "prev_page": null
              }
          }
        }
